…
    ## List of 1
    ##  $ : tibble [249 x 4] (S3: tbl_df/tbl/data.frame)
    ##   ..$ value: num [1:249] 348077 413949 404663 373671 318831 ...
    ##   ..$ date : Date[1:249], format: "2021-09-01" "2021-08-01" ...
    ##   ..$ year : int [1:249] 2021 2021 2021 2021 2021 2021 2021 2021 2021 2020 ...
    ##   ..$ month: int [1:249] 9 8 7 6 5 4 3 2 1 12 ...

``` r
# unnesting columns 
select(us_electricity_net, data) %>% unnest(cols = data)
```

    ## # A tibble: 249 x 4
    ##      value date        year month
    ##      <dbl> <date>     <int> <int>
    ##  1 348077. 2021-09-01  2021     9
    ##  2 413949. 2021-08-01  2021     8
    ##  3 404663. 2021-07-01  2021     7
    ##  4 373671. 2021-06-01  2021     6
    ##  5 318831. 2021-05-01  2021     5
    ##  6 292469. 2021-04-01  2021     4
    ##  7 312152. 2021-03-01  2021     3
    ##  8 327824. 2021-02-01  2021     2
    ##  9 350705. 2021-01-01  2021     1
    ## 10 344335. 2020-12-01  2020    12
    ## # ... with 239 more rows
…
    ## List of 1
    ##  $ : tibble [249 x 4] (S3: tbl_df/tbl/data.frame)
    ##   ..$ value: num [1:249] 336003 380366 372649 337506 289027 ...
    ##   ..$ date : Date[1:249], format: "2021-09-01" "2021-08-01" ...
    ##   ..$ year : int [1:249] 2021 2021 2021 2021 2021 2021 2021 2021 2021 2020 ...
    ##   ..$ month: int [1:249] 9 8 7 6 5 4 3 2 1 12 ...

``` r
# first few data points
head(us_retail_sales_electricity$data)
```

    ## [[1]]
    ## # A tibble: 249 x 4
    ##      value date        year month
    ##      <dbl> <date>     <int> <int>
    ##  1 336003. 2021-09-01  2021     9
    ##  2 380366. 2021-08-01  2021     8
    ##  3 372649. 2021-07-01  2021     7
    ##  4 337506. 2021-06-01  2021     6
    ##  5 289027. 2021-05-01  2021     5
    ##  6 271618. 2021-04-01  2021     4
    ##  7 293378. 2021-03-01  2021     3
    ##  8 298684. 2021-02-01  2021     2
    ##  9 320935. 2021-01-01  2021     1
    ## 10 315330. 2020-12-01  2020    12
    ## # ... with 239 more rows
…
    ## List of 1
    ##  $ : tibble [249 x 4] (S3: tbl_df/tbl/data.frame)
    ##   ..$ value: num [1:249] 11.7 11.6 11.6 11.3 10.8 ...
    ##   ..$ date : Date[1:249], format: "2021-09-01" "2021-08-01" ...
    ##   ..$ year : int [1:249] 2021 2021 2021 2021 2021 2021 2021 2021 2021 2020 ...
    ##   ..$ month: int [1:249] 9 8 7 6 5 4 3 2 1 12 ...

``` r
# unnesting columns 
select(us_electricity_price, data) %>% unnest(cols = data)
```

    ## # A tibble: 249 x 4
    ##    value date        year month
    ##    <dbl> <date>     <int> <int>
    ##  1  11.7 2021-09-01  2021     9
    ##  2  11.6 2021-08-01  2021     8
    ##  3  11.6 2021-07-01  2021     7
    ##  4  11.3 2021-06-01  2021     6
    ##  5  10.8 2021-05-01  2021     5
    ##  6  10.7 2021-04-01  2021     4
    ##  7  10.9 2021-03-01  2021     3
    ##  8  11.4 2021-02-01  2021     2
    ##  9  10.4 2021-01-01  2021     1
    ## 10  10.4 2020-12-01  2020    12
    ## # ... with 239 more rows
…
    ## List of 1
    ##  $ : tibble [165 x 4] (S3: tbl_df/tbl/data.frame)
    ##   ..$ value: num [1:165] 5.09 4.44 4.11 3.56 3.34 ...
    ##   ..$ date : Date[1:165], format: "2021-09-01" "2021-08-01" ...
    ##   ..$ year : int [1:165] 2021 2021 2021 2021 2021 2021 2021 2021 2021 2020 ...
    ##   ..$ month: int [1:165] 9 8 7 6 5 4 3 2 1 12 ...

``` r
# unnesting columns 
select(us_fossil_cost, data) %>% unnest(cols = data)
```

    ## # A tibble: 165 x 4
    ##    value date        year month
    ##    <dbl> <date>     <int> <int>
    ##  1  5.09 2021-09-01  2021     9
    ##  2  4.44 2021-08-01  2021     8
    ##  3  4.11 2021-07-01  2021     7
    ##  4  3.56 2021-06-01  2021     6
    ##  5  3.34 2021-05-01  2021     5
    ##  6  3.11 2021-04-01  2021     4
    ##  7  3.37 2021-03-01  2021     3
    ##  8 16.1  2021-02-01  2021     2
    ##  9  3.3  2021-01-01  2021     1
    ## 10  3.28 2020-12-01  2020    12
    ## # ... with 155 more rows
…
