…
    ## List of 1
    ##  $ : tibble [396 x 4] (S3: tbl_df/tbl/data.frame)
    ##   ..$ value: num [1:396] 2.81 2.8 2.8 2.8 2.79 ...
    ##   ..$ date : Date[1:396], format: "2022-12-01" "2022-11-01" ...
    ##   ..$ year : int [1:396] 2022 2022 2022 2022 2022 2022 2022 2022 2022 2022 ...
    ##   ..$ month: int [1:396] 12 11 10 9 8 7 6 5 4 3 ...

``` r
# unnesting columns 
select(us_cpi, data) %>% unnest(cols = data)
```

    ## # A tibble: 396 x 4
    ##    value date        year month
    ##    <dbl> <date>     <int> <int>
    ##  1  2.81 2022-12-01  2022    12
    ##  2  2.80 2022-11-01  2022    11
    ##  3  2.80 2022-10-01  2022    10
    ##  4  2.80 2022-09-01  2022     9
    ##  5  2.79 2022-08-01  2022     8
    ##  6  2.79 2022-07-01  2022     7
    ##  7  2.79 2022-06-01  2022     6
    ##  8  2.79 2022-05-01  2022     5
    ##  9  2.78 2022-04-01  2022     4
    ## 10  2.78 2022-03-01  2022     3
    ## # ... with 386 more rows
…
